01_clustering
…
df_without_na_prep <- df_without_na %>% recipe() %>% 
  step_scale(all_numeric()) %>%
  step_dummy(all_nominal()) %>%
  prep() %>% 
  bake(new_data = NULL)

df_with_fewer_vars_prep <- df_with_fewer_vars %>% recipe() %>% 
  step_scale(all_numeric()) %>%  
  step_dummy(all_nominal()) %>%
  prep() %>% 
  bake(new_data = NULL)

df_without_na_prep

## # A tibble: 242,480 x 24
##    COUNTtotal SUMtotal SUMaverage COUNTaverage donation_interv~ days_since_last~
##         <dbl>    <dbl>      <dbl>        <dbl>            <dbl>            <dbl>
##  1      0.266  0.00489    0.00588        0.266           1.35              -1.67
##  2      0.266  0.0171     0.0206         0.266           0.334             -3.79
##  3      0.177  0.00122    0.00221        0.177           1.06              -4.41
##  4      1.51   0.0348     0.00740        1.51            0.0366            -2.57
##  5      1.06   0.0265     0.00798        1.06            0.0774            -2.99
##  6      0.354  0.00733    0.00662        0.354           0.0681            -4.45
##  7      0.177  0.0110     0.0198         0.177           0.268             -1.46
##  8      0.177  0.00489    0.00882        0.177           0.329             -4.11
##  9      0.177  0.00244    0.00441        0.177           0.135             -4.43
## 10      0.531  0.0114     0.00686        0.531           0.0128            -3.93
## # ... with 242,470 more rows, and 18 more variables:
## #   num_of_donation_years <dbl>, Gender_female <dbl>, Gender_male <dbl>,
## #   Bundesland_K <dbl>, Bundesland_N <dbl>, Bundesland_O <dbl>,
## #   Bundesland_Sa <dbl>, Bundesland_St <dbl>, Bundesland_T <dbl>,
## #   Bundesland_V <dbl>, Bundesland_W <dbl>, generation_moniker_boomer <dbl>,
## #   generation_moniker_x <dbl>, generation_moniker_millennial <dbl>,
## #   generation_moniker_z <dbl>, XMAS_donor_maybe <dbl>, ...
…
